[
    {
        "name": "first_name",
        "field_type": "STRING",
        "mode": "NULLABLE"
    },
    {
        "name": "last_name",
        "field_type": "STRING",
        "mode": "NULLABLE"
    },
    {
        "name": "age",
        "field_type": "INT64",
        "mode": "NULLABLE"
    }
]
